^C:\CORAL_SYSTEM\PAA\CORAL_PAA_VS\PAA_BATCH\STDAFX.CPP
C:\CORAL_SYSTEM\PAA\CORAL_PAA_VS\PAA_BATCH\X64\DEBUG\PAA_BATCH.PCH
C:\CORAL_SYSTEM\PAA\CORAL_PAA_VS\PAA_BATCH\X64\DEBUG\VC140.PDB
C:\CORAL_SYSTEM\PAA\CORAL_PAA_VS\PAA_BATCH\X64\DEBUG\VC140.IDB
C:\CORAL_SYSTEM\PAA\CORAL_PAA_VS\PAA_BATCH\X64\DEBUG\STDAFX.OBJ
^C:\CORAL_SYSTEM\PAA\CORAL_PAA_VS\PAA_BATCH\PAA_BATCH.CPP|C:\CORAL_SYSTEM\PAA\CORAL_PAA_VS\PAA_BATCH\PDTW_BATCH.CPP
C:\CORAL_SYSTEM\PAA\CORAL_PAA_VS\PAA_BATCH\X64\DEBUG\VC140.PDB
C:\CORAL_SYSTEM\PAA\CORAL_PAA_VS\PAA_BATCH\X64\DEBUG\VC140.IDB
C:\CORAL_SYSTEM\PAA\CORAL_PAA_VS\PAA_BATCH\X64\DEBUG\PDTW_BATCH.OBJ
^C:\CORAL_SYSTEM\PAA\CORAL_PAA_VS\PAA_BATCH\PAA_BATCH.CPP
C:\CORAL_SYSTEM\PAA\CORAL_PAA_VS\PAA_BATCH\X64\DEBUG\VC140.PDB
C:\CORAL_SYSTEM\PAA\CORAL_PAA_VS\PAA_BATCH\X64\DEBUG\VC140.IDB
C:\CORAL_SYSTEM\PAA\CORAL_PAA_VS\PAA_BATCH\X64\DEBUG\PAA_BATCH.OBJ
^C:\CORAL_SYSTEM\PAA\CORAL_PAA_VS\PAA_BATCH\PDTW_BATCH.CPP
C:\CORAL_SYSTEM\PAA\CORAL_PAA_VS\PAA_BATCH\X64\DEBUG\VC140.PDB
C:\CORAL_SYSTEM\PAA\CORAL_PAA_VS\PAA_BATCH\X64\DEBUG\VC140.IDB
C:\CORAL_SYSTEM\PAA\CORAL_PAA_VS\PAA_BATCH\X64\DEBUG\PDTW_BATCH.OBJ
