^C:\CORAL_SYSTEM\PAA\CORAL_PAA_VS\CORAL_PAA_VS\RELEASE\PDTW.OBJ
C:\CORAL_SYSTEM\PAA\CORAL_PAA_VS\RELEASE\CORAL_PAA_VS.EXE
C:\CORAL_SYSTEM\PAA\CORAL_PAA_VS\RELEASE\CORAL_PAA_VS.IPDB
C:\CORAL_SYSTEM\PAA\CORAL_PAA_VS\RELEASE\CORAL_PAA_VS.IOBJ
C:\CORAL_SYSTEM\PAA\CORAL_PAA_VS\RELEASE\CORAL_PAA_VS.PDB
