^C:\CORAL_SYSTEM\PAA\CORAL_PAA_VS\CORAL_PAA_VS\DEBUG\PDTW.OBJ
C:\CORAL_SYSTEM\PAA\CORAL_PAA_VS\DEBUG\CORAL_PAA_VS.ILK
C:\CORAL_SYSTEM\PAA\CORAL_PAA_VS\DEBUG\CORAL_PAA_VS.EXE
C:\CORAL_SYSTEM\PAA\CORAL_PAA_VS\DEBUG\CORAL_PAA_VS.PDB
